[
{"type":"header","version":"5.1.1","comment":"Export to JSON plugin for PHPMyAdmin"},
{"type":"database","name":"cordoba_db"},
{"type":"table","name":"kids_master_book","database":"cordoba_db","data":
[
{"id":"12","name":"Ajarkan Aku Cinta Sholat","cover_url":"upload\/books\/cover\/84d9313e91bbef1151739930b36af172.jpg","cover_sound_url":"upload\/books\/sound\/84d9313e91bbef1151739930b36af172.mp3","number":"1","code":"kids-book-1","created_at":"2022-02-03 08:47:05","updated_at":"2022-02-16 11:47:13"}
]
}
,{"type":"table","name":"kids_tbl_page","database":"cordoba_db","data":
[
{"id":"100","book_id":"12","page_number":"1","image_url":"upload\/books\/pages\/13\/Shalat%20Hal%200b.jpg","created_at":"0000-00-00 00:00:00","updated_at":"2022-02-16 12:06:36"},
{"id":"101","book_id":"12","page_number":"2","image_url":"upload\/books\/pages\/13\/Shalat%20Hal%200c.jpg","created_at":"0000-00-00 00:00:00","updated_at":"2022-02-16 12:06:41"},
{"id":"102","book_id":"12","page_number":"3","image_url":"upload\/books\/pages\/13\/Shalat%20Hal%201.jpg","created_at":"0000-00-00 00:00:00","updated_at":"0000-00-00 00:00:00"},
{"id":"103","book_id":"12","page_number":"4","image_url":"upload\/books\/pages\/13\/Shalat%20Hal%202.jpg","created_at":"0000-00-00 00:00:00","updated_at":"0000-00-00 00:00:00"},
{"id":"104","book_id":"12","page_number":"5","image_url":"upload\/books\/pages\/13\/Shalat%20Hal%203.jpg","created_at":"0000-00-00 00:00:00","updated_at":"0000-00-00 00:00:00"},
{"id":"105","book_id":"12","page_number":"6","image_url":"upload\/books\/pages\/13\/Shalat%20Hal%204.jpg","created_at":"0000-00-00 00:00:00","updated_at":"0000-00-00 00:00:00"},
{"id":"106","book_id":"12","page_number":"7","image_url":"upload\/books\/pages\/13\/Shalat%20Hal%205.jpg","created_at":"0000-00-00 00:00:00","updated_at":"0000-00-00 00:00:00"},
{"id":"107","book_id":"12","page_number":"8","image_url":"upload\/books\/pages\/13\/Shalat%20Hal%206.jpg","created_at":"0000-00-00 00:00:00","updated_at":"0000-00-00 00:00:00"},
{"id":"108","book_id":"12","page_number":"9","image_url":"upload\/books\/pages\/13\/Shalat%20Hal%207.jpg","created_at":"0000-00-00 00:00:00","updated_at":"0000-00-00 00:00:00"},
{"id":"109","book_id":"12","page_number":"10","image_url":"upload\/books\/pages\/13\/Shalat%20Hal%208.jpg","created_at":"0000-00-00 00:00:00","updated_at":"0000-00-00 00:00:00"},
{"id":"110","book_id":"12","page_number":"11","image_url":"upload\/books\/pages\/13\/Shalat%20Hal%209.jpg","created_at":"0000-00-00 00:00:00","updated_at":"0000-00-00 00:00:00"},
{"id":"111","book_id":"12","page_number":"12","image_url":"upload\/books\/pages\/13\/Shalat%20Hal%2010.jpg","created_at":"0000-00-00 00:00:00","updated_at":"0000-00-00 00:00:00"},
{"id":"112","book_id":"12","page_number":"13","image_url":"upload\/books\/pages\/13\/Shalat%20Hal%2011.jpg","created_at":"0000-00-00 00:00:00","updated_at":"0000-00-00 00:00:00"},
{"id":"113","book_id":"12","page_number":"14","image_url":"upload\/books\/pages\/13\/Shalat%20Hal%2012.jpg","created_at":"0000-00-00 00:00:00","updated_at":"0000-00-00 00:00:00"},
{"id":"114","book_id":"12","page_number":"15","image_url":"upload\/books\/pages\/13\/Shalat%20Hal%2013.jpg","created_at":"0000-00-00 00:00:00","updated_at":"0000-00-00 00:00:00"},
{"id":"115","book_id":"12","page_number":"16","image_url":"upload\/books\/pages\/13\/Shalat%20Hal%2014.jpg","created_at":"0000-00-00 00:00:00","updated_at":"0000-00-00 00:00:00"},
{"id":"116","book_id":"12","page_number":"17","image_url":"upload\/books\/pages\/13\/Shalat%20Hal%2015.jpg","created_at":"0000-00-00 00:00:00","updated_at":"0000-00-00 00:00:00"},
{"id":"117","book_id":"12","page_number":"18","image_url":"upload\/books\/pages\/13\/Shalat%20Hal%2016.jpg","created_at":"0000-00-00 00:00:00","updated_at":"0000-00-00 00:00:00"},
{"id":"118","book_id":"12","page_number":"19","image_url":"upload\/books\/pages\/13\/Shalat%20Hal%2017.jpg","created_at":"0000-00-00 00:00:00","updated_at":"0000-00-00 00:00:00"},
{"id":"119","book_id":"12","page_number":"20","image_url":"upload\/books\/pages\/13\/Shalat%20Hal%2018.jpg","created_at":"0000-00-00 00:00:00","updated_at":"0000-00-00 00:00:00"},
{"id":"120","book_id":"12","page_number":"21","image_url":"upload\/books\/pages\/13\/Shalat%20Hal%2019.jpg","created_at":"0000-00-00 00:00:00","updated_at":"0000-00-00 00:00:00"},
{"id":"121","book_id":"12","page_number":"22","image_url":"upload\/books\/pages\/13\/Shalat%20Hal%2020.jpg","created_at":"0000-00-00 00:00:00","updated_at":"0000-00-00 00:00:00"},
{"id":"122","book_id":"12","page_number":"23","image_url":"upload\/books\/pages\/13\/Shalat%20Hal%2021.jpg","created_at":"0000-00-00 00:00:00","updated_at":"0000-00-00 00:00:00"},
{"id":"123","book_id":"12","page_number":"24","image_url":"upload\/books\/pages\/13\/Shalat%20Hal%2022.jpg","created_at":"0000-00-00 00:00:00","updated_at":"0000-00-00 00:00:00"},
{"id":"124","book_id":"12","page_number":"25","image_url":"upload\/books\/pages\/13\/Shalat%20Hal%2023.jpg","created_at":"0000-00-00 00:00:00","updated_at":"0000-00-00 00:00:00"},
{"id":"125","book_id":"12","page_number":"26","image_url":"upload\/books\/pages\/13\/Shalat%20Hal%2024.jpg","created_at":"0000-00-00 00:00:00","updated_at":"0000-00-00 00:00:00"},
{"id":"126","book_id":"12","page_number":"27","image_url":"upload\/books\/pages\/13\/Shalat%20Hal%2025.jpg","created_at":"0000-00-00 00:00:00","updated_at":"0000-00-00 00:00:00"},
{"id":"127","book_id":"12","page_number":"28","image_url":"upload\/books\/pages\/13\/Shalat%20Hal%2026.jpg","created_at":"0000-00-00 00:00:00","updated_at":"0000-00-00 00:00:00"},
{"id":"128","book_id":"12","page_number":"29","image_url":"upload\/books\/pages\/13\/Shalat%20Hal%2027.jpg","created_at":"0000-00-00 00:00:00","updated_at":"0000-00-00 00:00:00"},
{"id":"129","book_id":"12","page_number":"30","image_url":"upload\/books\/pages\/13\/Shalat%20Hal%2028.jpg","created_at":"0000-00-00 00:00:00","updated_at":"0000-00-00 00:00:00"},
{"id":"130","book_id":"12","page_number":"31","image_url":"upload\/books\/pages\/13\/Shalat%20Hal%2029.jpg","created_at":"0000-00-00 00:00:00","updated_at":"0000-00-00 00:00:00"},
{"id":"131","book_id":"12","page_number":"32","image_url":"upload\/books\/pages\/13\/Shalat%20Hal%2030.jpg","created_at":"0000-00-00 00:00:00","updated_at":"0000-00-00 00:00:00"},
{"id":"132","book_id":"12","page_number":"33","image_url":"upload\/books\/pages\/13\/Shalat%20Hal%2031.jpg","created_at":"0000-00-00 00:00:00","updated_at":"0000-00-00 00:00:00"},
{"id":"133","book_id":"12","page_number":"34","image_url":"upload\/books\/pages\/13\/Shalat%20Hal%2032.jpg","created_at":"0000-00-00 00:00:00","updated_at":"0000-00-00 00:00:00"},
{"id":"134","book_id":"12","page_number":"35","image_url":"upload\/books\/pages\/13\/Shalat%20Hal%2033.jpg","created_at":"0000-00-00 00:00:00","updated_at":"0000-00-00 00:00:00"},
{"id":"135","book_id":"12","page_number":"36","image_url":"upload\/books\/pages\/13\/Shalat%20Hal%2034.jpg","created_at":"0000-00-00 00:00:00","updated_at":"0000-00-00 00:00:00"},
{"id":"136","book_id":"12","page_number":"37","image_url":"upload\/books\/pages\/13\/Shalat%20Hal%2035.jpg","created_at":"0000-00-00 00:00:00","updated_at":"0000-00-00 00:00:00"},
{"id":"137","book_id":"12","page_number":"38","image_url":"upload\/books\/pages\/13\/Shalat%20Hal%2036.jpg","created_at":"0000-00-00 00:00:00","updated_at":"0000-00-00 00:00:00"},
{"id":"138","book_id":"12","page_number":"39","image_url":"upload\/books\/pages\/13\/Shalat%20Hal%2037.jpg","created_at":"0000-00-00 00:00:00","updated_at":"0000-00-00 00:00:00"},
{"id":"139","book_id":"12","page_number":"40","image_url":"upload\/books\/pages\/13\/Shalat%20Hal%2038.jpg","created_at":"0000-00-00 00:00:00","updated_at":"0000-00-00 00:00:00"},
{"id":"140","book_id":"12","page_number":"41","image_url":"upload\/books\/pages\/13\/Shalat%20Hal%2039.jpg","created_at":"0000-00-00 00:00:00","updated_at":"0000-00-00 00:00:00"},
{"id":"141","book_id":"12","page_number":"42","image_url":"upload\/books\/pages\/13\/Shalat%20Hal%2040.jpg","created_at":"0000-00-00 00:00:00","updated_at":"0000-00-00 00:00:00"},
{"id":"142","book_id":"12","page_number":"43","image_url":"upload\/books\/pages\/13\/Shalat%20Hal%2041.jpg","created_at":"0000-00-00 00:00:00","updated_at":"0000-00-00 00:00:00"},
{"id":"143","book_id":"12","page_number":"44","image_url":"upload\/books\/pages\/13\/Shalat%20Hal%2042.jpg","created_at":"0000-00-00 00:00:00","updated_at":"0000-00-00 00:00:00"},
{"id":"144","book_id":"12","page_number":"45","image_url":"upload\/books\/pages\/13\/Shalat%20Hal%2043.jpg","created_at":"0000-00-00 00:00:00","updated_at":"0000-00-00 00:00:00"},
{"id":"145","book_id":"12","page_number":"46","image_url":"upload\/books\/pages\/13\/Shalat%20Hal%2044.jpg","created_at":"0000-00-00 00:00:00","updated_at":"0000-00-00 00:00:00"},
{"id":"146","book_id":"12","page_number":"47","image_url":"upload\/books\/pages\/13\/Shalat%20Hal%2045.jpg","created_at":"0000-00-00 00:00:00","updated_at":"0000-00-00 00:00:00"},
{"id":"147","book_id":"12","page_number":"48","image_url":"upload\/books\/pages\/13\/Shalat%20Hal%2046.jpg","created_at":"0000-00-00 00:00:00","updated_at":"0000-00-00 00:00:00"},
{"id":"148","book_id":"12","page_number":"49","image_url":"upload\/books\/pages\/13\/Shalat%20Hal%2047.jpg","created_at":"0000-00-00 00:00:00","updated_at":"0000-00-00 00:00:00"},
{"id":"149","book_id":"12","page_number":"50","image_url":"upload\/books\/pages\/13\/Shalat%20Hal%2048.jpg","created_at":"0000-00-00 00:00:00","updated_at":"0000-00-00 00:00:00"},
{"id":"150","book_id":"12","page_number":"51","image_url":"upload\/books\/pages\/13\/Shalat%20Hal%2049.jpg","created_at":"0000-00-00 00:00:00","updated_at":"0000-00-00 00:00:00"},
{"id":"151","book_id":"12","page_number":"52","image_url":"upload\/books\/pages\/13\/Shalat%20Hal%2050.jpg","created_at":"0000-00-00 00:00:00","updated_at":"0000-00-00 00:00:00"},
{"id":"152","book_id":"12","page_number":"53","image_url":"upload\/books\/pages\/13\/Shalat%20Hal%2051.jpg","created_at":"0000-00-00 00:00:00","updated_at":"0000-00-00 00:00:00"},
{"id":"153","book_id":"12","page_number":"54","image_url":"upload\/books\/pages\/13\/Shalat%20Hal%2052.jpg","created_at":"0000-00-00 00:00:00","updated_at":"0000-00-00 00:00:00"},
{"id":"154","book_id":"12","page_number":"55","image_url":"upload\/books\/pages\/13\/Shalat%20Hal%2053.jpg","created_at":"0000-00-00 00:00:00","updated_at":"0000-00-00 00:00:00"},
{"id":"155","book_id":"12","page_number":"56","image_url":"upload\/books\/pages\/13\/Shalat%20Hal%2054.jpg","created_at":"0000-00-00 00:00:00","updated_at":"0000-00-00 00:00:00"},
{"id":"156","book_id":"12","page_number":"57","image_url":"upload\/books\/pages\/13\/Shalat%20Hal%2055.jpg","created_at":"0000-00-00 00:00:00","updated_at":"0000-00-00 00:00:00"},
{"id":"157","book_id":"12","page_number":"58","image_url":"upload\/books\/pages\/13\/Shalat%20Hal%2056.jpg","created_at":"0000-00-00 00:00:00","updated_at":"0000-00-00 00:00:00"},
{"id":"158","book_id":"12","page_number":"59","image_url":"upload\/books\/pages\/13\/Shalat%20Hal%2057.jpg","created_at":"0000-00-00 00:00:00","updated_at":"0000-00-00 00:00:00"},
{"id":"159","book_id":"12","page_number":"60","image_url":"upload\/books\/pages\/13\/Shalat%20Hal%2058.jpg","created_at":"0000-00-00 00:00:00","updated_at":"0000-00-00 00:00:00"},
{"id":"160","book_id":"12","page_number":"61","image_url":"upload\/books\/pages\/13\/Shalat%20Hal%2059.jpg","created_at":"0000-00-00 00:00:00","updated_at":"0000-00-00 00:00:00"},
{"id":"161","book_id":"12","page_number":"62","image_url":"upload\/books\/pages\/13\/Shalat%20Hal%2060.jpg","created_at":"0000-00-00 00:00:00","updated_at":"0000-00-00 00:00:00"},
{"id":"162","book_id":"12","page_number":"63","image_url":"upload\/books\/pages\/13\/Shalat%20Hal%2061.jpg","created_at":"0000-00-00 00:00:00","updated_at":"0000-00-00 00:00:00"},
{"id":"163","book_id":"12","page_number":"64","image_url":"upload\/books\/pages\/13\/Shalat%20Hal%2062.jpg","created_at":"0000-00-00 00:00:00","updated_at":"0000-00-00 00:00:00"},
{"id":"164","book_id":"12","page_number":"65","image_url":"upload\/books\/pages\/13\/Shalat%20Hal%2063.jpg","created_at":"0000-00-00 00:00:00","updated_at":"0000-00-00 00:00:00"},
{"id":"165","book_id":"12","page_number":"66","image_url":"upload\/books\/pages\/13\/Shalat%20Hal%2064.jpg","created_at":"0000-00-00 00:00:00","updated_at":"0000-00-00 00:00:00"},
{"id":"166","book_id":"12","page_number":"67","image_url":"upload\/books\/pages\/13\/Shalat%20Hal%2065.jpg","created_at":"0000-00-00 00:00:00","updated_at":"0000-00-00 00:00:00"},
{"id":"167","book_id":"12","page_number":"68","image_url":"upload\/books\/pages\/13\/Shalat%20Hal%2066.jpg","created_at":"0000-00-00 00:00:00","updated_at":"0000-00-00 00:00:00"},
{"id":"168","book_id":"12","page_number":"69","image_url":"upload\/books\/pages\/13\/Shalat%20Hal%2067.jpg","created_at":"0000-00-00 00:00:00","updated_at":"0000-00-00 00:00:00"},
{"id":"169","book_id":"12","page_number":"70","image_url":"upload\/books\/pages\/13\/Shalat%20Hal%2068.jpg","created_at":"0000-00-00 00:00:00","updated_at":"0000-00-00 00:00:00"},
{"id":"170","book_id":"12","page_number":"71","image_url":"upload\/books\/pages\/13\/Shalat%20Hal%2069.jpg","created_at":"0000-00-00 00:00:00","updated_at":"0000-00-00 00:00:00"},
{"id":"171","book_id":"12","page_number":"72","image_url":"upload\/books\/pages\/13\/Shalat%20Hal%2070.jpg","created_at":"0000-00-00 00:00:00","updated_at":"0000-00-00 00:00:00"},
{"id":"172","book_id":"12","page_number":"73","image_url":"upload\/books\/pages\/13\/Shalat%20Hal%2071.jpg","created_at":"0000-00-00 00:00:00","updated_at":"0000-00-00 00:00:00"},
{"id":"173","book_id":"12","page_number":"74","image_url":"upload\/books\/pages\/13\/Shalat%20Hal%2072.jpg","created_at":"0000-00-00 00:00:00","updated_at":"0000-00-00 00:00:00"},
{"id":"174","book_id":"12","page_number":"75","image_url":"upload\/books\/pages\/13\/Shalat%20Hal%2073.jpg","created_at":"0000-00-00 00:00:00","updated_at":"0000-00-00 00:00:00"},
{"id":"175","book_id":"12","page_number":"76","image_url":"upload\/books\/pages\/13\/Shalat%20Hal%2074.jpg","created_at":"0000-00-00 00:00:00","updated_at":"0000-00-00 00:00:00"},
{"id":"176","book_id":"12","page_number":"77","image_url":"upload\/books\/pages\/13\/Shalat%20Hal%2075.jpg","created_at":"0000-00-00 00:00:00","updated_at":"0000-00-00 00:00:00"},
{"id":"177","book_id":"12","page_number":"78","image_url":"upload\/books\/pages\/13\/Shalat%20Hal%2076.jpg","created_at":"0000-00-00 00:00:00","updated_at":"0000-00-00 00:00:00"},
{"id":"178","book_id":"12","page_number":"79","image_url":"upload\/books\/pages\/13\/Shalat%20Hal%2077.jpg","created_at":"0000-00-00 00:00:00","updated_at":"0000-00-00 00:00:00"},
{"id":"179","book_id":"12","page_number":"80","image_url":"upload\/books\/pages\/13\/Shalat%20Hal%2078.jpg","created_at":"0000-00-00 00:00:00","updated_at":"0000-00-00 00:00:00"},
{"id":"180","book_id":"12","page_number":"81","image_url":"upload\/books\/pages\/13\/Shalat%20Hal%2079.jpg","created_at":"0000-00-00 00:00:00","updated_at":"0000-00-00 00:00:00"},
{"id":"181","book_id":"12","page_number":"82","image_url":"upload\/books\/pages\/13\/Shalat%20Hal%2080.jpg","created_at":"0000-00-00 00:00:00","updated_at":"0000-00-00 00:00:00"},
{"id":"182","book_id":"12","page_number":"83","image_url":"upload\/books\/pages\/13\/Shalat%20Hal%2081.jpg","created_at":"0000-00-00 00:00:00","updated_at":"0000-00-00 00:00:00"},
{"id":"183","book_id":"12","page_number":"84","image_url":"upload\/books\/pages\/13\/Shalat%20Hal%2082.jpg","created_at":"0000-00-00 00:00:00","updated_at":"0000-00-00 00:00:00"},
{"id":"184","book_id":"12","page_number":"85","image_url":"upload\/books\/pages\/13\/Shalat%20Hal%2083.jpg","created_at":"0000-00-00 00:00:00","updated_at":"0000-00-00 00:00:00"},
{"id":"185","book_id":"12","page_number":"86","image_url":"upload\/books\/pages\/13\/Shalat%20Hal%2084.jpg","created_at":"0000-00-00 00:00:00","updated_at":"0000-00-00 00:00:00"},
{"id":"186","book_id":"12","page_number":"87","image_url":"upload\/books\/pages\/13\/Shalat%20Hal%2085.jpg","created_at":"0000-00-00 00:00:00","updated_at":"0000-00-00 00:00:00"},
{"id":"187","book_id":"12","page_number":"88","image_url":"upload\/books\/pages\/13\/Shalat%20Hal%2086.jpg","created_at":"0000-00-00 00:00:00","updated_at":"0000-00-00 00:00:00"},
{"id":"188","book_id":"12","page_number":"89","image_url":"upload\/books\/pages\/13\/Shalat%20Hal%2087.jpg","created_at":"0000-00-00 00:00:00","updated_at":"0000-00-00 00:00:00"},
{"id":"189","book_id":"12","page_number":"90","image_url":"upload\/books\/pages\/13\/Shalat%20Hal%2088.jpg","created_at":"0000-00-00 00:00:00","updated_at":"0000-00-00 00:00:00"},
{"id":"190","book_id":"12","page_number":"91","image_url":"upload\/books\/pages\/13\/Shalat%20Hal%2089.jpg","created_at":"0000-00-00 00:00:00","updated_at":"0000-00-00 00:00:00"},
{"id":"191","book_id":"12","page_number":"92","image_url":"upload\/books\/pages\/13\/Shalat%20Hal%2090.jpg","created_at":"0000-00-00 00:00:00","updated_at":"0000-00-00 00:00:00"},
{"id":"192","book_id":"12","page_number":"93","image_url":"upload\/books\/pages\/13\/Shalat%20Hal%2091.jpg","created_at":"0000-00-00 00:00:00","updated_at":"0000-00-00 00:00:00"},
{"id":"193","book_id":"12","page_number":"94","image_url":"upload\/books\/pages\/13\/Shalat%20Hal%2092.jpg","created_at":"0000-00-00 00:00:00","updated_at":"0000-00-00 00:00:00"},
{"id":"194","book_id":"12","page_number":"95","image_url":"upload\/books\/pages\/13\/Shalat%20Hal%2093.jpg","created_at":"0000-00-00 00:00:00","updated_at":"0000-00-00 00:00:00"},
{"id":"195","book_id":"12","page_number":"96","image_url":"upload\/books\/pages\/13\/Shalat%20Hal%2094.jpg","created_at":"0000-00-00 00:00:00","updated_at":"0000-00-00 00:00:00"},
{"id":"196","book_id":"12","page_number":"97","image_url":"upload\/books\/pages\/13\/Shalat%20Hal%2095.jpg","created_at":"0000-00-00 00:00:00","updated_at":"0000-00-00 00:00:00"},
{"id":"197","book_id":"12","page_number":"98","image_url":"upload\/books\/pages\/13\/Shalat%20Hal%2096.jpg","created_at":"0000-00-00 00:00:00","updated_at":"0000-00-00 00:00:00"},
{"id":"198","book_id":"12","page_number":"99","image_url":"upload\/books\/pages\/13\/Shalat%20Hal%2097.jpg","created_at":"0000-00-00 00:00:00","updated_at":"0000-00-00 00:00:00"},
{"id":"199","book_id":"12","page_number":"100","image_url":"upload\/books\/pages\/13\/Shalat%20Hal%2098.jpg","created_at":"0000-00-00 00:00:00","updated_at":"0000-00-00 00:00:00"},
{"id":"200","book_id":"12","page_number":"101","image_url":"upload\/books\/pages\/13\/Shalat%20Hal%2099.jpg","created_at":"0000-00-00 00:00:00","updated_at":"0000-00-00 00:00:00"},
{"id":"201","book_id":"12","page_number":"102","image_url":"upload\/books\/pages\/13\/Shalat%20Hal%20100.jpg","created_at":"0000-00-00 00:00:00","updated_at":"0000-00-00 00:00:00"},
{"id":"202","book_id":"12","page_number":"103","image_url":"upload\/books\/pages\/13\/Shalat%20Hal%20101.jpg","created_at":"0000-00-00 00:00:00","updated_at":"0000-00-00 00:00:00"},
{"id":"203","book_id":"12","page_number":"104","image_url":"upload\/books\/pages\/13\/Shalat%20Hal%20102.jpg","created_at":"0000-00-00 00:00:00","updated_at":"0000-00-00 00:00:00"},
{"id":"204","book_id":"12","page_number":"105","image_url":"upload\/books\/pages\/13\/Shalat%20Hal%20103.jpg","created_at":"0000-00-00 00:00:00","updated_at":"0000-00-00 00:00:00"},
{"id":"205","book_id":"12","page_number":"106","image_url":"upload\/books\/pages\/13\/Shalat%20Hal%20104.jpg","created_at":"0000-00-00 00:00:00","updated_at":"0000-00-00 00:00:00"},
{"id":"206","book_id":"12","page_number":"107","image_url":"upload\/books\/pages\/13\/Shalat%20Hal%20105.jpg","created_at":"0000-00-00 00:00:00","updated_at":"0000-00-00 00:00:00"},
{"id":"207","book_id":"12","page_number":"108","image_url":"upload\/books\/pages\/13\/Shalat%20Hal%20106.jpg","created_at":"0000-00-00 00:00:00","updated_at":"0000-00-00 00:00:00"},
{"id":"208","book_id":"12","page_number":"109","image_url":"upload\/books\/pages\/13\/Shalat%20Hal%20107.jpg","created_at":"0000-00-00 00:00:00","updated_at":"0000-00-00 00:00:00"},
{"id":"209","book_id":"12","page_number":"110","image_url":"upload\/books\/pages\/13\/Shalat%20Hal%20108.jpg","created_at":"0000-00-00 00:00:00","updated_at":"0000-00-00 00:00:00"}
]
}
,{"type":"table","name":"kids_tbl_sound","database":"cordoba_db","data":
[

]
}
,{"type":"table","name":"master_role","database":"cordoba_db","data":
[
{"id":"1","level":"1","name":"admin","created_at":"2022-02-03 10:25:46","updated_at":"2022-02-03 10:25:46"}
]
}
,{"type":"table","name":"tbl_user","database":"cordoba_db","data":
[
{"id":"1","name":"Admin","role_id":"1","gender":"1","phone":null,"username":"admin","password":"$2y$10$l229FjACMFraAbxnDjoQY.FUvtSIkBKkzmi3fMMZfLBBV.IXdwYke","created_at":"2022-02-03 10:26:24","updated_at":"2022-02-03 10:26:24"}
]
}
]
