100;12;1;upload/books/pages/13/Shalat%20Hal%200a.jpg;16/02/2022 04:14;16/02/2022 04:14
101;12;2;upload/books/pages/13/Shalat%20Hal%200b.jpg;16/02/2022 04:14;16/02/2022 04:14
102;12;3;upload/books/pages/13/Shalat%20Hal%201.jpg;16/02/2022 04:14;16/02/2022 04:14
103;12;4;upload/books/pages/13/Shalat%20Hal%202.jpg;16/02/2022 04:14;16/02/2022 04:14
104;12;5;upload/books/pages/13/Shalat%20Hal%203.jpg;16/02/2022 04:14;16/02/2022 04:14
105;12;6;upload/books/pages/13/Shalat%20Hal%204.jpg;16/02/2022 04:14;16/02/2022 04:14
106;12;7;upload/books/pages/13/Shalat%20Hal%205.jpg;16/02/2022 04:14;16/02/2022 04:14
107;12;8;upload/books/pages/13/Shalat%20Hal%206.jpg;16/02/2022 04:14;16/02/2022 04:14
108;12;9;upload/books/pages/13/Shalat%20Hal%207.jpg;16/02/2022 04:14;16/02/2022 04:14
109;12;10;upload/books/pages/13/Shalat%20Hal%208.jpg;16/02/2022 04:14;16/02/2022 04:14
110;12;11;upload/books/pages/13/Shalat%20Hal%209.jpg;16/02/2022 04:14;16/02/2022 04:14
111;12;12;upload/books/pages/13/Shalat%20Hal%2010.jpg;16/02/2022 04:14;16/02/2022 04:14
112;12;13;upload/books/pages/13/Shalat%20Hal%2011.jpg;16/02/2022 04:14;16/02/2022 04:14
113;12;14;upload/books/pages/13/Shalat%20Hal%2012.jpg;16/02/2022 04:14;16/02/2022 04:14
114;12;15;upload/books/pages/13/Shalat%20Hal%2013.jpg;16/02/2022 04:14;16/02/2022 04:14
115;12;16;upload/books/pages/13/Shalat%20Hal%2014.jpg;16/02/2022 04:14;16/02/2022 04:14
116;12;17;upload/books/pages/13/Shalat%20Hal%2015.jpg;16/02/2022 04:14;16/02/2022 04:14
117;12;18;upload/books/pages/13/Shalat%20Hal%2016.jpg;16/02/2022 04:14;16/02/2022 04:14
118;12;19;upload/books/pages/13/Shalat%20Hal%2017.jpg;16/02/2022 04:14;16/02/2022 04:14
119;12;20;upload/books/pages/13/Shalat%20Hal%2018.jpg;16/02/2022 04:14;16/02/2022 04:14
120;12;21;upload/books/pages/13/Shalat%20Hal%2019.jpg;16/02/2022 04:14;16/02/2022 04:14
121;12;22;upload/books/pages/13/Shalat%20Hal%2020.jpg;16/02/2022 04:14;16/02/2022 04:14
122;12;23;upload/books/pages/13/Shalat%20Hal%2021.jpg;16/02/2022 04:14;16/02/2022 04:14
123;12;24;upload/books/pages/13/Shalat%20Hal%2022.jpg;16/02/2022 04:14;16/02/2022 04:14
124;12;25;upload/books/pages/13/Shalat%20Hal%2023.jpg;16/02/2022 04:14;16/02/2022 04:14
125;12;26;upload/books/pages/13/Shalat%20Hal%2024.jpg;16/02/2022 04:14;16/02/2022 04:14
126;12;27;upload/books/pages/13/Shalat%20Hal%2025.jpg;16/02/2022 04:14;16/02/2022 04:14
127;12;28;upload/books/pages/13/Shalat%20Hal%2026.jpg;16/02/2022 04:14;16/02/2022 04:14
128;12;29;upload/books/pages/13/Shalat%20Hal%2027.jpg;16/02/2022 04:14;16/02/2022 04:14
129;12;30;upload/books/pages/13/Shalat%20Hal%2028.jpg;16/02/2022 04:14;16/02/2022 04:14
130;12;31;upload/books/pages/13/Shalat%20Hal%2029.jpg;16/02/2022 04:14;16/02/2022 04:14
131;12;32;upload/books/pages/13/Shalat%20Hal%2030.jpg;16/02/2022 04:14;16/02/2022 04:14
132;12;33;upload/books/pages/13/Shalat%20Hal%2031.jpg;16/02/2022 04:14;16/02/2022 04:14
133;12;34;upload/books/pages/13/Shalat%20Hal%2032.jpg;16/02/2022 04:14;16/02/2022 04:14
134;12;35;upload/books/pages/13/Shalat%20Hal%2033.jpg;16/02/2022 04:14;16/02/2022 04:14
135;12;36;upload/books/pages/13/Shalat%20Hal%2034.jpg;16/02/2022 04:14;16/02/2022 04:14
136;12;37;upload/books/pages/13/Shalat%20Hal%2035.jpg;16/02/2022 04:14;16/02/2022 04:14
137;12;38;upload/books/pages/13/Shalat%20Hal%2036.jpg;16/02/2022 04:14;16/02/2022 04:14
138;12;39;upload/books/pages/13/Shalat%20Hal%2037.jpg;16/02/2022 04:14;16/02/2022 04:14
139;12;40;upload/books/pages/13/Shalat%20Hal%2038.jpg;16/02/2022 04:14;16/02/2022 04:14
140;12;41;upload/books/pages/13/Shalat%20Hal%2039.jpg;16/02/2022 04:14;16/02/2022 04:14
141;12;42;upload/books/pages/13/Shalat%20Hal%2040.jpg;16/02/2022 04:14;16/02/2022 04:14
142;12;43;upload/books/pages/13/Shalat%20Hal%2041.jpg;16/02/2022 04:14;16/02/2022 04:14
143;12;44;upload/books/pages/13/Shalat%20Hal%2042.jpg;16/02/2022 04:14;16/02/2022 04:14
144;12;45;upload/books/pages/13/Shalat%20Hal%2043.jpg;16/02/2022 04:14;16/02/2022 04:14
145;12;46;upload/books/pages/13/Shalat%20Hal%2044.jpg;16/02/2022 04:14;16/02/2022 04:14
146;12;47;upload/books/pages/13/Shalat%20Hal%2045.jpg;16/02/2022 04:14;16/02/2022 04:14
147;12;48;upload/books/pages/13/Shalat%20Hal%2046.jpg;16/02/2022 04:14;16/02/2022 04:14
148;12;49;upload/books/pages/13/Shalat%20Hal%2047.jpg;16/02/2022 04:14;16/02/2022 04:14
149;12;50;upload/books/pages/13/Shalat%20Hal%2048.jpg;16/02/2022 04:14;16/02/2022 04:14
150;12;51;upload/books/pages/13/Shalat%20Hal%2049.jpg;16/02/2022 04:14;16/02/2022 04:14
151;12;52;upload/books/pages/13/Shalat%20Hal%2050.jpg;16/02/2022 04:14;16/02/2022 04:14
152;12;53;upload/books/pages/13/Shalat%20Hal%2051.jpg;16/02/2022 04:14;16/02/2022 04:14
153;12;54;upload/books/pages/13/Shalat%20Hal%2052.jpg;16/02/2022 04:14;16/02/2022 04:14
154;12;55;upload/books/pages/13/Shalat%20Hal%2053.jpg;16/02/2022 04:14;16/02/2022 04:14
155;12;56;upload/books/pages/13/Shalat%20Hal%2054.jpg;16/02/2022 04:14;16/02/2022 04:14
156;12;57;upload/books/pages/13/Shalat%20Hal%2055.jpg;16/02/2022 04:14;16/02/2022 04:14
157;12;58;upload/books/pages/13/Shalat%20Hal%2056.jpg;16/02/2022 04:14;16/02/2022 04:14
158;12;59;upload/books/pages/13/Shalat%20Hal%2057.jpg;16/02/2022 04:14;16/02/2022 04:14
159;12;60;upload/books/pages/13/Shalat%20Hal%2058.jpg;16/02/2022 04:14;16/02/2022 04:14
160;12;61;upload/books/pages/13/Shalat%20Hal%2059.jpg;16/02/2022 04:14;16/02/2022 04:14
161;12;62;upload/books/pages/13/Shalat%20Hal%2060.jpg;16/02/2022 04:14;16/02/2022 04:14
162;12;63;upload/books/pages/13/Shalat%20Hal%2061.jpg;16/02/2022 04:14;16/02/2022 04:14
163;12;64;upload/books/pages/13/Shalat%20Hal%2062.jpg;16/02/2022 04:14;16/02/2022 04:14
164;12;65;upload/books/pages/13/Shalat%20Hal%2063.jpg;16/02/2022 04:14;16/02/2022 04:14
165;12;66;upload/books/pages/13/Shalat%20Hal%2064.jpg;16/02/2022 04:14;16/02/2022 04:14
166;12;67;upload/books/pages/13/Shalat%20Hal%2065.jpg;16/02/2022 04:14;16/02/2022 04:14
167;12;68;upload/books/pages/13/Shalat%20Hal%2066.jpg;16/02/2022 04:14;16/02/2022 04:14
168;12;69;upload/books/pages/13/Shalat%20Hal%2067.jpg;16/02/2022 04:14;16/02/2022 04:14
169;12;70;upload/books/pages/13/Shalat%20Hal%2068.jpg;16/02/2022 04:14;16/02/2022 04:14
170;12;71;upload/books/pages/13/Shalat%20Hal%2069.jpg;16/02/2022 04:14;16/02/2022 04:14
171;12;72;upload/books/pages/13/Shalat%20Hal%2070.jpg;16/02/2022 04:14;16/02/2022 04:14
172;12;73;upload/books/pages/13/Shalat%20Hal%2071.jpg;16/02/2022 04:14;16/02/2022 04:14
173;12;74;upload/books/pages/13/Shalat%20Hal%2072.jpg;16/02/2022 04:14;16/02/2022 04:14
174;12;75;upload/books/pages/13/Shalat%20Hal%2073.jpg;16/02/2022 04:14;16/02/2022 04:14
175;12;76;upload/books/pages/13/Shalat%20Hal%2074.jpg;16/02/2022 04:14;16/02/2022 04:14
176;12;77;upload/books/pages/13/Shalat%20Hal%2075.jpg;16/02/2022 04:14;16/02/2022 04:14
177;12;78;upload/books/pages/13/Shalat%20Hal%2076.jpg;16/02/2022 04:14;16/02/2022 04:14
178;12;79;upload/books/pages/13/Shalat%20Hal%2077.jpg;16/02/2022 04:14;16/02/2022 04:14
179;12;80;upload/books/pages/13/Shalat%20Hal%2078.jpg;16/02/2022 04:14;16/02/2022 04:14
180;12;81;upload/books/pages/13/Shalat%20Hal%2079.jpg;16/02/2022 04:14;16/02/2022 04:14
181;12;82;upload/books/pages/13/Shalat%20Hal%2080.jpg;16/02/2022 04:14;16/02/2022 04:14
182;12;83;upload/books/pages/13/Shalat%20Hal%2081.jpg;16/02/2022 04:14;16/02/2022 04:14
183;12;84;upload/books/pages/13/Shalat%20Hal%2082.jpg;16/02/2022 04:14;16/02/2022 04:14
184;12;85;upload/books/pages/13/Shalat%20Hal%2083.jpg;16/02/2022 04:14;16/02/2022 04:14
185;12;86;upload/books/pages/13/Shalat%20Hal%2084.jpg;16/02/2022 04:14;16/02/2022 04:14
186;12;87;upload/books/pages/13/Shalat%20Hal%2085.jpg;16/02/2022 04:14;16/02/2022 04:14
187;12;88;upload/books/pages/13/Shalat%20Hal%2086.jpg;16/02/2022 04:14;16/02/2022 04:14
188;12;89;upload/books/pages/13/Shalat%20Hal%2087.jpg;16/02/2022 04:14;16/02/2022 04:14
189;12;90;upload/books/pages/13/Shalat%20Hal%2088.jpg;16/02/2022 04:14;16/02/2022 04:14
190;12;91;upload/books/pages/13/Shalat%20Hal%2089.jpg;16/02/2022 04:14;16/02/2022 04:14
191;12;92;upload/books/pages/13/Shalat%20Hal%2090.jpg;16/02/2022 04:14;16/02/2022 04:14
192;12;93;upload/books/pages/13/Shalat%20Hal%2091.jpg;16/02/2022 04:14;16/02/2022 04:14
193;12;94;upload/books/pages/13/Shalat%20Hal%2092.jpg;16/02/2022 04:14;16/02/2022 04:14
194;12;95;upload/books/pages/13/Shalat%20Hal%2093.jpg;16/02/2022 04:14;16/02/2022 04:14
195;12;96;upload/books/pages/13/Shalat%20Hal%2094.jpg;16/02/2022 04:14;16/02/2022 04:14
196;12;97;upload/books/pages/13/Shalat%20Hal%2095.jpg;16/02/2022 04:14;16/02/2022 04:14
197;12;98;upload/books/pages/13/Shalat%20Hal%2096.jpg;16/02/2022 04:14;16/02/2022 04:14
198;12;99;upload/books/pages/13/Shalat%20Hal%2097.jpg;16/02/2022 04:14;16/02/2022 04:14
199;12;100;upload/books/pages/13/Shalat%20Hal%2098.jpg;16/02/2022 04:14;16/02/2022 04:14
200;12;101;upload/books/pages/13/Shalat%20Hal%2099.jpg;16/02/2022 04:14;16/02/2022 04:14
201;12;102;upload/books/pages/13/Shalat%20Hal%20100.jpg;16/02/2022 04:14;16/02/2022 04:14
202;12;103;upload/books/pages/13/Shalat%20Hal%20101.jpg;16/02/2022 04:14;16/02/2022 04:14
203;12;104;upload/books/pages/13/Shalat%20Hal%20102.jpg;16/02/2022 04:14;16/02/2022 04:14
204;12;105;upload/books/pages/13/Shalat%20Hal%20103.jpg;16/02/2022 04:14;16/02/2022 04:14
205;12;106;upload/books/pages/13/Shalat%20Hal%20104.jpg;16/02/2022 04:14;16/02/2022 04:14
206;12;107;upload/books/pages/13/Shalat%20Hal%20105.jpg;16/02/2022 04:14;16/02/2022 04:14
207;12;108;upload/books/pages/13/Shalat%20Hal%20106.jpg;16/02/2022 04:14;16/02/2022 04:14
208;12;109;upload/books/pages/13/Shalat%20Hal%20107.jpg;16/02/2022 04:14;16/02/2022 04:14
209;12;110;upload/books/pages/13/Shalat%20Hal%20108.jpg;16/02/2022 04:14;16/02/2022 04:14
